<svg width="408" height="408" viewBox="0 0 408 408" fill="none" xmlns="http://www.w3.org/2000/svg">
<g clip-path="url(#clip0)">
<path d="M105 21.179L286.945 203.719L105 386.258L126.248 407.437L329.303 203.719L126.248 2.42851e-05L105 21.179Z" fill="black"/>
</g>
<defs>
<clipPath id="clip0">
<rect width="407.437" height="407.437" fill="white"/>
</clipPath>
</defs>
</svg>
