<svg width="408" height="408" viewBox="0 0 408 408" fill="none" xmlns="http://www.w3.org/2000/svg">
<g clip-path="url(#clip0)">
<path d="M21.179 315.87L203.719 133.925L386.258 315.87L407.437 294.622L203.719 91.567L0 294.622L21.179 315.87Z" fill="black"/>
</g>
<defs>
<clipPath id="clip0">
<rect width="407.437" height="407.437" fill="white"/>
</clipPath>
</defs>
</svg>
