<svg width="512" height="512" viewBox="0 0 512 512" fill="none" xmlns="http://www.w3.org/2000/svg">
<path d="M511.266 197.256C509.502 191.825 504.808 187.868 499.158 187.047L340.436 163.982L269.452 20.155C266.925 15.035 261.711 11.794 256.001 11.794C250.292 11.794 245.077 15.036 242.55 20.155L171.562 163.983L12.8429 187.047C7.19289 187.868 2.49889 191.826 0.73489 197.256C-1.03011 202.686 0.44189 208.647 4.52989 212.632L119.378 324.587L92.2699 482.67C91.3049 488.297 93.6189 493.985 98.2379 497.34C102.856 500.695 108.978 501.138 114.035 498.482L256 423.846L397.961 498.483C400.156 499.637 402.552 500.206 404.94 500.206C408.05 500.206 411.146 499.24 413.758 497.341C418.377 493.985 420.691 488.298 419.726 482.67L392.61 324.587L507.47 212.633C511.559 208.647 513.031 202.686 511.266 197.256ZM366.023 308.608C362.487 312.054 360.873 317.02 361.709 321.886L385.02 457.784L262.982 393.622C258.612 391.325 253.391 391.325 249.021 393.622L126.976 457.785L150.28 321.885C151.114 317.019 149.501 312.055 145.967 308.609L47.2359 212.365L183.681 192.536C188.567 191.826 192.789 188.758 194.975 184.331L256 60.685L317.023 184.33C319.209 188.757 323.431 191.826 328.317 192.536L464.764 212.364L366.023 308.608Z" fill="black"/>
<path d="M511.266 197.256C509.502 191.825 504.808 187.868 499.158 187.047L340.436 163.982L269.452 20.155C266.925 15.035 261.711 11.794 256.001 11.794C250.292 11.794 245.077 15.036 242.55 20.155L171.562 163.983L12.8429 187.047C7.19289 187.868 2.49889 191.826 0.73489 197.256C-1.03011 202.686 0.44189 208.647 4.52989 212.632L119.378 324.587L92.2699 482.67C91.3049 488.297 93.6189 493.985 98.2379 497.34C102.856 500.695 108.978 501.138 114.035 498.482L256 423.846L397.961 498.483C400.156 499.637 402.552 500.206 404.94 500.206C408.05 500.206 411.146 499.24 413.758 497.341C418.377 493.985 420.691 488.298 419.726 482.67L392.61 324.587L507.47 212.633C511.559 208.647 513.031 202.686 511.266 197.256Z" fill="white"/>
</svg>
